<?xml version="1.0" encoding="utf-8"?>
<svg width='20px' height='20px' xmlns="http://www.w3.org/2000/svg" viewBox="0 0 100 100"
     preserveAspectRatio="xMidYMid" class="uil-ring">
    <rect x="0" y="0" width="100" height="100" fill="none" class="bk"></rect>
    <circle cx="50" cy="50" r="46.5" stroke-dasharray="175.30087007031042 116.86724671354031"
            stroke="#4E5154" fill="none" stroke-width="7">
        <animateTransform attributeName="transform" type="rotate"
                          values="0 50 50;180 50 50;360 50 50;" keyTimes="0;0.5;1" dur="2s"
                          repeatCount="indefinite" begin="0s"></animateTransform>
    </circle>
</svg>
